<svg width="24" height="24" viewBox="0 0 24 24" fill="none" xmlns="http://www.w3.org/2000/svg">
<g clip-path="url(#clip0)">
<path d="M23.5735 4.53885C23.2625 4.17126 22.827 3.94673 22.3472 3.90665L5.44615 2.49543C4.96625 2.45536 4.49965 2.60456 4.13201 2.91548C3.76588 3.22518 3.54167 3.65845 3.50033 4.13596L3.1603 7.32607H1.80257C0.808637 7.32607 0 8.13471 0 9.12864V19.7084C0 20.7023 0.808637 21.511 1.80257 21.511H18.7625C19.7565 21.511 20.5651 20.7023 20.5651 19.7084V17.9922L21.1669 18.0424C21.2177 18.0466 21.2682 18.0487 21.3182 18.0487C22.2449 18.0487 23.0348 17.3358 23.1133 16.3961L23.9936 5.85303C24.0337 5.37317 23.8845 4.90649 23.5735 4.53885ZM1.80257 8.26357H18.7625C19.2395 8.26357 19.6276 8.65164 19.6276 9.12864V10.0927H0.937496V9.12864C0.937496 8.65164 1.32557 8.26357 1.80257 8.26357ZM0.937496 11.0302H19.6276V12.975H0.937496V11.0302ZM18.7625 20.5735H1.80257C1.32557 20.5735 0.937496 20.1854 0.937496 19.7084V13.9125H19.6276V19.7084C19.6276 20.1854 19.2395 20.5735 18.7625 20.5735ZM23.0594 5.77498L22.179 16.318C22.1393 16.7934 21.7202 17.148 21.2449 17.1081L20.5651 17.0514V9.12864C20.5651 8.13471 19.7565 7.32607 18.7625 7.32607H4.10314L4.43309 4.23046C4.43347 4.2269 4.43379 4.22338 4.43408 4.21977C4.47378 3.74441 4.89265 3.38985 5.36815 3.4297L22.2692 4.84091C22.4995 4.86013 22.7086 4.96789 22.8578 5.14433C23.007 5.32077 23.0786 5.54469 23.0594 5.77498Z" fill="#E40000"/>
<path d="M7.98009 15.3061H3.46875C3.20986 15.3061 3 15.516 3 15.7749V18.7181C3 18.977 3.20986 19.1869 3.46875 19.1869H7.98009C8.23898 19.1869 8.44884 18.977 8.44884 18.7181V15.7749C8.44884 15.516 8.23898 15.3061 7.98009 15.3061ZM7.51134 18.2494H3.9375V16.2436H7.51134V18.2494Z" fill="#E40000"/>
<circle cx="16" cy="17" r="4.6" fill="white" stroke="#E40000" stroke-width="0.8"/>
<path d="M15.6343 17.5303C15.6343 18.0218 15.5326 18.3978 15.3291 18.6582C15.1257 18.9186 14.8278 19.0488 14.4355 19.0488C14.0482 19.0488 13.752 18.9211 13.5469 18.6655C13.3418 18.41 13.2368 18.0438 13.2319 17.5669V16.9126C13.2319 16.4162 13.3345 16.0394 13.5396 15.7822C13.7463 15.5251 14.0433 15.3965 14.4307 15.3965C14.818 15.3965 15.1143 15.5243 15.3193 15.7798C15.5244 16.0337 15.6294 16.3991 15.6343 16.876V17.5303ZM14.9287 16.8125C14.9287 16.5179 14.888 16.3039 14.8066 16.1704C14.7269 16.0353 14.6016 15.9678 14.4307 15.9678C14.2646 15.9678 14.1418 16.0321 14.062 16.1606C13.9839 16.2876 13.9424 16.487 13.9375 16.7588V17.623C13.9375 17.9128 13.9766 18.1284 14.0547 18.27C14.1344 18.41 14.2614 18.48 14.4355 18.48C14.6081 18.48 14.7326 18.4124 14.8091 18.2773C14.8856 18.1423 14.9255 17.9355 14.9287 17.6572V16.8125ZM16.103 16.1289C16.103 15.9108 16.1738 15.7342 16.3154 15.5991C16.457 15.4624 16.6426 15.394 16.8721 15.394C17.1048 15.394 17.292 15.4616 17.4336 15.5967C17.5752 15.7301 17.646 15.9116 17.646 16.1411V16.3169C17.646 16.5366 17.5752 16.7132 17.4336 16.8467C17.292 16.9801 17.1064 17.0469 16.877 17.0469C16.6458 17.0469 16.4587 16.9801 16.3154 16.8467C16.1738 16.7116 16.103 16.5301 16.103 16.3022V16.1289ZM16.5718 16.3169C16.5718 16.4146 16.5994 16.4935 16.6548 16.5537C16.7118 16.6123 16.7858 16.6416 16.877 16.6416C16.9681 16.6416 17.0405 16.6115 17.0942 16.5513C17.1479 16.491 17.1748 16.4105 17.1748 16.3096V16.1289C17.1748 16.0312 17.1479 15.9523 17.0942 15.8921C17.0405 15.8319 16.9665 15.8018 16.8721 15.8018C16.7826 15.8018 16.7101 15.8319 16.6548 15.8921C16.5994 15.9507 16.5718 16.0329 16.5718 16.1387V16.3169ZM17.8022 18.1284C17.8022 17.9087 17.8739 17.7321 18.0171 17.5986C18.1603 17.4635 18.3459 17.396 18.5737 17.396C18.8049 17.396 18.9912 17.4627 19.1328 17.5962C19.276 17.728 19.3477 17.9103 19.3477 18.1431V18.3188C19.3477 18.5369 19.2777 18.7135 19.1377 18.8486C18.9977 18.9821 18.8114 19.0488 18.5786 19.0488C18.3442 19.0488 18.1562 18.9813 18.0146 18.8462C17.873 18.7111 17.8022 18.5321 17.8022 18.3091V18.1284ZM18.271 18.3188C18.271 18.4084 18.3003 18.4849 18.3589 18.5483C18.4175 18.6118 18.4907 18.6436 18.5786 18.6436C18.7772 18.6436 18.8765 18.5337 18.8765 18.314V18.1284C18.8765 18.0308 18.8488 17.9526 18.7935 17.894C18.7381 17.8338 18.6649 17.8037 18.5737 17.8037C18.4826 17.8037 18.4093 17.8338 18.354 17.894C18.2987 17.9526 18.271 18.0332 18.271 18.1357V18.3188ZM17.0161 18.7339L16.6719 18.5483L18.4077 15.77L18.752 15.9556L17.0161 18.7339Z" fill="#E40000"/>
</g>
<defs>
<clipPath id="clip0">
<rect width="24" height="24" fill="white"/>
</clipPath>
</defs>
</svg>
